[gd_scene load_steps=7 format=2]

[ext_resource path="res://assets/graphics/HUD/energy_belt_full.png" type="Texture" id=1]
[ext_resource path="res://assets/graphics/HUD/energy_belt_empty.png" type="Texture" id=2]
[ext_resource path="res://scripts/Alt_bar.gd" type="Script" id=3]
[ext_resource path="res://assets/kimberley bl.ttf" type="DynamicFontData" id=4]
[ext_resource path="res://assets/graphics/HUD/energy_belt.png" type="Texture" id=5]

[sub_resource type="DynamicFont" id=1]

size = 40
use_mipmaps = false
use_filter = false
font_data = ExtResource( 4 )
_sections_unfolded = [ "Font", "Settings" ]

[node name="En_bar" type="TextureProgress"]

anchor_left = 0.0
anchor_top = 0.0
anchor_right = 0.0
anchor_bottom = 0.0
margin_right = 204.0
margin_bottom = 408.0
rect_pivot_offset = Vector2( 0, 0 )
rect_clip_content = false
mouse_filter = 1
mouse_default_cursor_shape = 0
size_flags_horizontal = 1
size_flags_vertical = 1
min_value = 0.0
max_value = 1000.0
step = 1.0
page = 0.0
value = 0.0
exp_edit = false
rounded = false
texture_under = ExtResource( 1 )
texture_over = null
texture_progress = ExtResource( 2 )
fill_mode = 2
radial_initial_angle = 30.5
radial_fill_degrees = 360.0
radial_center_offset = Vector2( 0, 0 )
nine_patch_stretch = false
script = ExtResource( 3 )
_sections_unfolded = [ "Radial Fill", "Textures" ]
maximum_value = 1000
minimum_value = 0
increment = 1.0

[node name="Label" type="Label" parent="." index="0"]

anchor_left = 0.0
anchor_top = 0.0
anchor_right = 0.0
anchor_bottom = 0.0
margin_left = 36.0
margin_top = -35.0
margin_right = 180.0
margin_bottom = 15.0
rect_pivot_offset = Vector2( 0, 0 )
rect_clip_content = false
mouse_filter = 2
mouse_default_cursor_shape = 0
size_flags_horizontal = 1
size_flags_vertical = 4
custom_fonts/font = SubResource( 1 )
text = "Energy"
uppercase = true
percent_visible = 1.0
lines_skipped = 0
max_lines_visible = -1
_sections_unfolded = [ "custom_fonts" ]

[node name="energy_belt" type="Sprite" parent="." index="1"]

texture = ExtResource( 5 )
centered = false
_sections_unfolded = [ "Offset", "Transform" ]


