[gd_scene load_steps=6 format=2]

[ext_resource path="res://scripts/Mineral_1.gd" type="Script" id=1]
[ext_resource path="res://assets/graphics/27.mineral_2_1.png" type="Texture" id=2]
[ext_resource path="res://assets/kimberley bl.ttf" type="DynamicFontData" id=3]

[sub_resource type="RectangleShape2D" id=1]

custom_solver_bias = 0.0
extents = Vector2( 100, 100 )

[sub_resource type="DynamicFont" id=2]

size = 30
use_mipmaps = true
use_filter = false
font_data = ExtResource( 3 )
_sections_unfolded = [ "Extra Spacing", "Font", "Resource", "Settings" ]

[node name="Mineral_1" type="Area2D" groups=[
"mineral",
]]

input_pickable = true
gravity_vec = Vector2( 0, 1 )
gravity = 98.0
linear_damp = 0.1
angular_damp = 1.0
collision_layer = 2
audio_bus_override = false
audio_bus_name = "Master"
script = ExtResource( 1 )
_sections_unfolded = [ "Collision" ]

[node name="Sprite" type="Sprite" parent="." index="0"]

position = Vector2( 102, 102 )
texture = ExtResource( 2 )
_sections_unfolded = [ "Transform" ]

[node name="CollisionShape2D" type="CollisionShape2D" parent="." index="1"]

visible = false
position = Vector2( 102, 102 )
shape = SubResource( 1 )
_sections_unfolded = [ "Transform" ]

[node name="RayCast2D" type="RayCast2D" parent="." index="2" groups=[
"ground",
]]

visible = false
position = Vector2( 102, 102 )
enabled = true
exclude_parent = true
cast_to = Vector2( 0, -110 )
collision_mask = 1
_sections_unfolded = [ "Transform" ]

[node name="qte_position" type="Position2D" parent="." index="3"]

position = Vector2( 100, 180 )

[node name="text_position" type="Position2D" parent="." index="4"]

visible = false
position = Vector2( 33, -70 )

[node name="Label" type="Label" parent="text_position" index="0"]

anchor_left = 0.0
anchor_top = 0.0
anchor_right = 0.0
anchor_bottom = 0.0
margin_right = 139.0
margin_bottom = 38.0
rect_pivot_offset = Vector2( 0, 0 )
rect_clip_content = false
mouse_filter = 2
mouse_default_cursor_shape = 0
size_flags_horizontal = 1
size_flags_vertical = 4
custom_fonts/font = SubResource( 2 )
text = "Mineral +1"
percent_visible = 1.0
lines_skipped = 0
max_lines_visible = -1
_sections_unfolded = [ "custom_fonts" ]


