; Engine configuration file.
; It's best edited using the editor UI and not directly,
; since the parameters that go here are not all obvious.
;
; Format:
;   [section] ; section goes between []
;   param=value ; assign values to parameters

config_version=3

[application]

config/name="Endless Runner"
run/main_scene="res://scenes/Start_scene.tscn"
config/icon="res://assets/graphics/IKONY/ikona 48x48.png"

[autoload]

Global="*res://scripts/Global.gd"

[display]

window/size/width=1080
window/size/height=1920
window/size/fullscreen=true
window/handheld/orientation="portrait"
window/handheld/emulate_touchscreen=true
window/stretch/mode="viewport"
window/stretch/aspect="keep"

[input]

quit=[ Object(InputEventKey,"resource_local_to_scene":false,"resource_name":"","device":0,"alt":false,"shift":false,"control":false,"meta":false,"command":false,"pressed":false,"scancode":70,"unicode":0,"echo":false,"script":null)
 ]
reload=[ Object(InputEventKey,"resource_local_to_scene":false,"resource_name":"","device":0,"alt":false,"shift":false,"control":false,"meta":false,"command":false,"pressed":false,"scancode":82,"unicode":0,"echo":false,"script":null)
 ]

[layer_names]

2d_physics/layer_1="Player"
2d_physics/layer_2="Ground"
2d_physics/layer_3="Mineral"
2d_physics/layer_4="Laser"

[rendering]

environment/default_environment="res://default_env.tres"
