[gd_scene load_steps=3 format=2]

[ext_resource path="res://scripts/Energy_3_generative.gd" type="Script" id=1]
[ext_resource path="res://assets/graphics/17.energy_ph-2.png" type="Texture" id=2]

[node name="Energy_1_generative" type="Area2D" groups=[
"ground",
]]

input_pickable = true
gravity_vec = Vector2( 0, 1 )
gravity = 98.0
linear_damp = 0.1
angular_damp = 1.0
collision_layer = 0
collision_mask = 0
audio_bus_override = false
audio_bus_name = "Master"
script = ExtResource( 1 )
_sections_unfolded = [ "Collision", "Visibility" ]

[node name="Sprite" type="Sprite" parent="." index="0"]

visible = false
position = Vector2( 102, 102 )
texture = ExtResource( 2 )
_sections_unfolded = [ "Transform", "Visibility" ]

[node name="CollisionShape2D" type="CollisionShape2D" parent="." index="1"]


